<svg width="20" height="21" viewBox="0 0 20 21" fill="none" xmlns="http://www.w3.org/2000/svg">
<path opacity="0.4" d="M16.6605 16.2944H11.9153C11.4523 16.2944 11.0757 16.6769 11.0757 17.1472C11.0757 17.6184 11.4523 18 11.9153 18H16.6605C17.1235 18 17.5 17.6184 17.5 17.1472C17.5 16.6769 17.1235 16.2944 16.6605 16.2944Z" fill="currentColor"/>
<path d="M8.59085 6.25321L13.0874 9.88662C13.1959 9.97351 13.2144 10.133 13.1297 10.244L7.79895 17.1902C7.46385 17.6193 6.97001 17.862 6.4409 17.871L3.5308 17.9068C3.37559 17.9086 3.23979 17.8011 3.20452 17.647L2.54313 14.7715C2.42849 14.2429 2.54313 13.6965 2.87823 13.2755L8.23547 6.29621C8.32189 6.18423 8.4815 6.16452 8.59085 6.25321Z" fill="currentColor"/>
<path opacity="0.4" d="M15.1005 7.7212L14.2337 8.80334C14.1463 8.91352 13.9894 8.93144 13.8809 8.84365C12.8271 7.99084 10.1286 5.80237 9.37995 5.19591C9.2706 5.10633 9.25561 4.94687 9.3438 4.83579L10.1798 3.79755C10.9382 2.82111 12.261 2.73153 13.328 3.58255L14.5538 4.55899C15.0564 4.95314 15.3915 5.47271 15.5062 6.01916C15.6384 6.62025 15.4973 7.21059 15.1005 7.7212Z" fill="currentColor"/>
</svg>
