<svg width="25" height="24" viewBox="0 0 25 24" fill="none" xmlns="http://www.w3.org/2000/svg">
<path opacity="0.4" fill-rule="evenodd" clip-rule="evenodd" d="M17.7725 6.04606C19.4799 7.36388 20.9335 9.29455 21.9774 11.7091C22.0555 11.8924 22.0555 12.1067 21.9774 12.2812C19.8896 17.1103 16.1725 20 12.0359 20H12.0262C7.89936 20 4.18229 17.1103 2.09449 12.2812C2.01644 12.1067 2.01644 11.8924 2.09449 11.7091C4.18229 6.87903 7.89936 4 12.0262 4H12.0359C14.1042 4 16.0652 4.71758 17.7725 6.04606ZM8.13351 12C8.13351 14.1333 9.87985 15.8691 12.0359 15.8691C14.1823 15.8691 15.9286 14.1333 15.9286 12C15.9286 9.85697 14.1823 8.12121 12.0359 8.12121C9.87985 8.12121 8.13351 9.85697 8.13351 12Z" fill="#A1A1A1"/>
<path d="M14.4669 11.9969C14.4669 13.3254 13.3742 14.4114 12.0376 14.4114C10.6913 14.4114 9.59857 13.3254 9.59857 11.9969C9.59857 11.832 9.61808 11.6779 9.64735 11.5227H9.69613C10.7791 11.5227 11.6571 10.6694 11.6961 9.60175C11.8034 9.58332 11.9205 9.57265 12.0376 9.57265C13.3742 9.57265 14.4669 10.6587 14.4669 11.9969Z" fill="#A1A1A1"/>
</svg>
